<?xml version="1.0" encoding="UTF-8" standalone="no"?>
<svg
   xmlns:dc="http://purl.org/dc/elements/1.1/"
   xmlns:cc="http://creativecommons.org/ns#"
   xmlns:rdf="http://www.w3.org/1999/02/22-rdf-syntax-ns#"
   xmlns:svg="http://www.w3.org/2000/svg"
   xmlns="http://www.w3.org/2000/svg"
   xmlns:xlink="http://www.w3.org/1999/xlink"
   xmlns:sodipodi="http://sodipodi.sourceforge.net/DTD/sodipodi-0.dtd"
   xmlns:inkscape="http://www.inkscape.org/namespaces/inkscape"
   width="100.78057mm"
   height="134.32314mm"
   viewBox="0 0 100.78057 134.32313"
   version="1.1"
   id="svg1287"
   inkscape:version="1.0.1 (3bc2e813f5, 2020-09-07)"
   sodipodi:docname="radiko_logo.svg">
  <defs
     id="defs1281">
    <linearGradient
       id="linearGradient3586"
       inkscape:collect="always">
      <stop
         id="stop3582"
         offset="0"
         style="stop-color:#ff00ff;stop-opacity:1;" />
      <stop
         id="stop3584"
         offset="1"
         style="stop-color:#fff;stop-opacity:1" />
    </linearGradient>
    <linearGradient
       inkscape:collect="always"
       id="linearGradient2633">
      <stop
         style="stop-color:#008000;stop-opacity:1;"
         offset="0"
         id="stop2629" />
      <stop
         style="stop-color:#008000;stop-opacity:0;"
         offset="1"
         id="stop2631" />
    </linearGradient>
    <radialGradient
       inkscape:collect="always"
       xlink:href="#linearGradient2633"
       id="radialGradient2637"
       cx="396.57532"
       cy="322.74045"
       fx="396.57532"
       fy="322.74045"
       r="24.930231"
       gradientTransform="matrix(2.4039808,0.33065233,-0.20556324,1.5450003,-781.97388,-543.12214)"
       gradientUnits="userSpaceOnUse" />
    <linearGradient
       inkscape:collect="always"
       xlink:href="#linearGradient3586"
       id="linearGradient3580"
       x1="71.542625"
       y1="264.78018"
       x2="71.224434"
       y2="298.59775"
       gradientUnits="userSpaceOnUse"
       gradientTransform="translate(36.282348,-152.70238)" />
    <clipPath
       clipPathUnits="userSpaceOnUse"
       id="clipPath8964">
      <path
         style="opacity:1;fill:#46ff46;fill-opacity:1;fill-rule:evenodd;stroke:none;stroke-width:1.00335634;stroke-miterlimit:10;stroke-dasharray:none;stroke-dashoffset:0;stroke-opacity:0"
         d="m 35.338563,79.416894 c -5.074139,-0.088 -9.261999,4.35977 -7.878908,9.43945 -0.0417,6.579439 -3.489161,12.849286 -3.669921,19.234376 3.318801,3.93927 5.829961,-3.68754 8.48242,-5.4375 5.034751,-5.178267 12.860289,-13.319435 8.06836,-20.945317 -1.24904,-1.372529 -3.106121,-2.392788 -5.001951,-2.291009 z"
         id="path8966"
         inkscape:connector-curvature="0" />
    </clipPath>
    <clipPath
       clipPathUnits="userSpaceOnUse"
       id="clipPath4749">
      <path
         inkscape:connector-curvature="0"
         id="path4751"
         d="m 850.70744,-698.70157 c -19.51733,-0.79951 -23.62901,24.25073 -14.77117,37.62001 10.25835,17.23676 25.58111,31.0259 38.72727,45.91908 12.70222,12.23397 8.5388,-8.09988 6.05344,-15.49679 -5.03382,-18.52649 -10.03197,-37.38716 -8.56698,-56.78673 -5.92346,-5.53556 -12.81219,-11.47664 -21.44256,-11.25557 z"
         style="opacity:1;fill:#46ff46;fill-opacity:1;fill-rule:evenodd;stroke:none;stroke-width:2.84416223;stroke-miterlimit:10;stroke-dasharray:none;stroke-dashoffset:0;stroke-opacity:0" />
    </clipPath>
    <clipPath
       clipPathUnits="userSpaceOnUse"
       id="clipPath4768">
      <path
         inkscape:connector-curvature="0"
         id="path4770"
         d="m 849.43944,-699.65756 c -19.51732,-0.79952 -23.62901,24.25072 -14.77117,37.62 10.25835,17.23676 25.58111,31.02591 38.72728,45.91909 12.70222,12.23399 8.5388,-8.09989 6.05344,-15.49679 -5.03383,-18.5265 -10.03197,-37.38717 -8.56697,-56.78674 -5.92348,-5.53556 -12.81221,-11.47664 -21.44258,-11.25556 z"
         style="opacity:1;fill:#46ff46;fill-opacity:1;fill-rule:evenodd;stroke:none;stroke-width:2.84416223;stroke-miterlimit:10;stroke-dasharray:none;stroke-dashoffset:0;stroke-opacity:0" />
    </clipPath>
  </defs>
  <sodipodi:namedview
     id="base"
     pagecolor="#ffffff"
     bordercolor="#666666"
     borderopacity="1.0"
     inkscape:pageopacity="0.0"
     inkscape:pageshadow="2"
     inkscape:zoom="2"
     inkscape:cx="358.04725"
     inkscape:cy="281.27335"
     inkscape:document-units="mm"
     inkscape:current-layer="layer1"
     showgrid="false"
     inkscape:window-width="1920"
     inkscape:window-height="1018"
     inkscape:window-x="1680"
     inkscape:window-y="0"
     inkscape:window-maximized="1"
     fit-margin-top="5"
     fit-margin-left="5"
     fit-margin-right="5"
     fit-margin-bottom="5"
     inkscape:document-rotation="0" />
  <metadata
     id="metadata1284">
    <rdf:RDF>
      <cc:Work
         rdf:about="">
        <dc:format>image/svg+xml</dc:format>
        <dc:type
           rdf:resource="http://purl.org/dc/dcmitype/StillImage" />
        <dc:title />
      </cc:Work>
    </rdf:RDF>
  </metadata>
  <g
     inkscape:label="Calque 1"
     inkscape:groupmode="layer"
     id="layer1"
     transform="translate(-54.229295,-60.43082)">
    <g
       aria-label="Radiko"
       id="radiko-text"
       transform="translate(0.00776778)">
      <path
         id="path103"
         d="m 73.707031,172.44922 c -0.871746,0.10341 -0.958651,1.10561 -0.86914,1.79609 0.02249,4.10913 -0.04475,8.22737 0.0332,12.33086 0.209505,1.03672 1.877276,0.94919 1.978515,-0.10156 0.03235,-1.69567 0.0042,-3.39481 0.01367,-5.0918 1.352917,0.0902 2.834717,-0.30552 4.03711,0.51172 0.876753,0.45819 1.202896,1.46375 1.107331,2.40047 0.01637,1.0959 0.347025,2.58623 1.621184,2.80461 0.924113,0.25923 1.717988,-0.97307 1.044922,-1.68164 -0.534198,-0.20446 -0.691438,-0.639 -0.663725,-1.19926 0.106107,-1.40429 -0.44536,-2.8828 -1.586275,-3.71676 2.02082,-1.43603 2.385446,-4.58727 0.75586,-6.45312 -1.023995,-1.29332 -2.737711,-1.75332 -4.327735,-1.60742 -1.047996,0.006 -2.098041,-0.0115 -3.144922,0.008 z m 4.021485,2.01953 c 1.695464,-0.0846 3.005494,1.86498 2.285156,3.4043 -0.457442,1.168 -1.784281,1.6626 -2.961328,1.50195 -0.729688,0 -1.459375,0 -2.189063,0 0,-1.63542 0,-3.27083 0,-4.90625 0.955078,0 1.910157,0 2.865235,0 z" />
      <path
         id="path105"
         d="m 93.363281,176.59375 c -0.564638,0.009 -1.012171,0.55828 -0.949219,1.11133 -1.948265,-1.68677 -5.170195,-1.39462 -6.81902,0.57394 -2.070705,2.20321 -1.786804,6.09746 0.617772,7.94553 1.729398,1.46712 4.488106,1.46368 6.201248,-0.0273 -0.158828,0.97241 1.249323,1.56 1.802735,0.72851 0.427458,-0.74497 0.104794,-1.67846 0.205078,-2.49961 -0.02507,-2.36263 0.04909,-4.73581 -0.03516,-7.09219 -0.105488,-0.45191 -0.562722,-0.77823 -1.023438,-0.74023 z m -3.728515,2.00391 c 2.251977,0.23304 3.44555,3.0459 2.408029,4.95428 -0.725975,1.68569 -3.088335,2.3496 -4.521525,1.14958 -1.941066,-1.40279 -1.669864,-4.79007 0.512071,-5.8164 0.48982,-0.25709 1.053951,-0.34165 1.601425,-0.28746 z" />
      <path
         id="path107"
         d="m 106.18945,172.44336 c -0.8197,0.01 -1.10493,0.91931 -0.97265,1.60195 0,1.22253 0,2.44505 0,3.66758 -2.02579,-1.70891 -5.343581,-1.40935 -7.033625,0.63135 -2.019008,2.18152 -1.745742,6.00075 0.616486,7.82845 1.781349,1.5148 4.614569,1.5355 6.417139,0.0461 -0.15017,1.02118 1.38241,1.54193 1.875,0.62891 0.33625,-0.84874 0.0614,-1.82396 0.15039,-2.72149 -0.0225,-3.6418 0.0449,-7.29276 -0.0332,-10.9289 -0.10603,-0.44848 -0.55831,-0.78691 -1.01953,-0.75391 z m -3.83789,6.19141 c 2.2148,0.18803 3.54118,2.89729 2.53193,4.82014 -0.74163,1.7554 -3.18951,2.43876 -4.69111,1.23 -1.848769,-1.28398 -1.748145,-4.37672 0.16133,-5.55529 0.58076,-0.39371 1.30135,-0.56385 1.99785,-0.49485 z" />
      <path
         id="path109"
         d="m 111.47852,173.43359 c -1.31266,0.0636 -1.29544,2.41473 0,2.49219 1.4642,0.10499 1.48072,-2.61211 0,-2.49219 z m 0,3.16016 c -0.81533,0.0152 -1.07104,0.92885 -0.94727,1.6 0.0231,2.79291 -0.0455,5.59516 0.0332,8.38242 0.20895,1.03644 1.87858,0.94964 1.97852,-0.10156 0.0103,-3.04103 0.0474,-6.09316 -0.0176,-9.13086 -0.10374,-0.46489 -0.57823,-0.7886 -1.04687,-0.75 z" />
      <path
         id="path111"
         d="m 117.01172,172.44336 c -0.86393,0.0296 -1.06846,1.0079 -0.94922,1.70195 0.0225,4.14246 -0.0447,8.29403 0.0332,12.43086 0.20898,1.0368 1.87856,0.94978 1.97852,-0.10156 0.0789,-0.72638 -0.0895,-1.53258 0.0844,-2.21134 0.44648,-0.44648 0.89297,-0.89296 1.33945,-1.33944 1.19305,1.40249 2.32458,2.87694 3.55273,4.23828 0.7613,0.56222 1.91411,-0.31137 1.50977,-1.19531 -1.02137,-1.44684 -2.24971,-2.75833 -3.34707,-4.15537 -0.64106,-0.48322 0.48219,-0.88025 0.71816,-1.32063 0.85401,-0.9289 1.87458,-1.72622 2.63086,-2.73299 0.45882,-0.95414 -0.94816,-1.89842 -1.64648,-1.09179 -1.60938,1.60351 -3.21875,3.20703 -4.82813,4.81054 -0.0231,-2.75853 0.0456,-5.52642 -0.0332,-8.27929 -0.10716,-0.46027 -0.57507,-0.7879 -1.04297,-0.75391 z" />
      <path
         id="path113"
         d="m 130.79297,176.61523 c -2.93514,0.26527 -5.07727,3.3573 -4.54317,6.20514 0.3429,2.70262 3.04789,4.94706 5.79332,4.44249 2.89557,-0.39658 4.86438,-3.54097 4.26157,-6.34098 -0.43975,-2.55104 -2.87946,-4.61727 -5.51172,-4.30665 z m 0.82031,1.98243 c 2.28358,0.25313 3.49129,3.14943 2.34869,5.05745 -0.78067,1.6176 -3.08372,2.22457 -4.47978,1.02691 -1.85893,-1.37733 -1.66363,-4.57298 0.35765,-5.70546 0.53346,-0.31045 1.15952,-0.44563 1.77344,-0.3789 z" />
    </g>
    <g
       id="wave-right">
      <path
         inkscape:connector-curvature="0"
         id="path8-3"
         d="m 141.50196,151.36675 c 5.4863,-5.11343 8.50783,-12.03767 8.50791,-19.49799 -8e-5,-7.45971 -3.02161,-14.38395 -8.50791,-19.49745 -0.62858,-0.58579 -1.61314,-0.55118 -2.19901,0.0774 -0.58579,0.62866 -0.55125,1.61315 0.0774,2.19902 4.84784,4.51829 7.51766,10.63418 7.51774,17.22157 -8e-5,6.58685 -2.6699,12.70273 -7.51774,17.22103 -0.32875,0.30643 -0.49508,0.72193 -0.49508,1.13852 0,0.37987 0.13832,0.76067 0.41768,1.06049 0.58595,0.62858 1.57043,0.66328 2.19901,0.0774 z"
         style="stroke-width:0.0777944" />
      <path
         inkscape:connector-curvature="0"
         id="path14-2"
         d="m 135.07661,145.65368 c 3.80835,-3.77979 5.90561,-8.67531 5.90545,-13.78485 -7e-5,-5.1107 -2.09741,-10.0063 -5.9056,-13.78493 -0.60999,-0.60524 -1.5951,-0.60142 -2.20034,0.009 -0.60524,0.60999 -0.60143,1.5951 0.009,2.20034 3.21493,3.18996 4.98553,7.30108 4.98561,11.57603 1.5e-4,4.27387 -1.77052,8.38499 -4.98577,11.57612 -0.30643,0.30417 -0.45984,0.70419 -0.45984,1.10437 0,0.39612 0.15046,0.79256 0.4516,1.09612 0.60532,0.60983 1.59043,0.61356 2.20033,0.008 z"
         style="stroke-width:0.0777944" />
      <path
         inkscape:connector-curvature="0"
         id="path20-2"
         d="m 128.6326,139.42679 c 2.00546,-2.02421 3.25118,-4.92571 3.25118,-7.57243 0,-3.1e-4 0,-8.5e-4 0,-0.001 v -0.11211 c 0,-4.6e-4 0,-7e-4 0,-0.001 0,-2.6468 -1.2458,-5.54853 -3.25118,-7.57266 -0.60478,-0.61038 -1.58989,-0.61497 -2.20034,-0.0102 -0.30705,0.30425 -0.46085,0.70474 -0.46085,1.1053 0,0.39574 0.15006,0.79164 0.45058,1.09496 1.42768,1.44098 2.35001,3.55364 2.35001,5.38274 0,2.4e-4 0,5.5e-4 0,7.8e-4 v 0.11257 c 0,3.1e-4 0,3.9e-4 0,7e-4 0,1.82887 -0.9224,3.94169 -2.35001,5.38251 -0.60469,0.61038 -0.60034,1.59564 0.0103,2.20034 0.61037,0.60485 1.59556,0.60026 2.20034,-0.0102 z"
         style="stroke-width:0.0777944" />
    </g>
    <g
       id="wave-left">
      <path
         id="path8-3-6"
         d="m 68.852691,111.95481 c -0.397937,-0.014 -0.801404,0.12357 -1.115694,0.41651 -5.486292,5.11342 -8.507413,12.03771 -8.507491,19.49804 7.8e-5,7.45969 3.021199,14.38401 8.507491,19.49751 0.628579,0.58579 1.61348,0.55106 2.199349,-0.0775 0.585792,-0.62865 0.551142,-1.61296 -0.07752,-2.19883 -4.847834,-4.51829 -7.51781,-10.63429 -7.517887,-17.22168 7.7e-5,-6.58686 2.670053,-12.70288 7.517887,-17.22118 0.328759,-0.30643 0.49506,-0.72184 0.49506,-1.13843 0,-0.37986 -0.138186,-0.76057 -0.417546,-1.0604 -0.292973,-0.31429 -0.685717,-0.48001 -1.083654,-0.49402 z"
         style="stroke-width:0.827287" />
      <path
         inkscape:connector-curvature="0"
         id="path14-2-1"
         d="m 74.162547,118.08441 c -3.808345,3.77979 -5.905604,8.67532 -5.905448,13.78486 7.8e-5,5.11069 2.097414,10.00629 5.905604,13.78492 0.609986,0.60524 1.595096,0.60143 2.200337,-0.009 0.60524,-0.60998 0.601427,-1.59509 -0.0086,-2.20033 -3.21493,-3.18996 -4.98553,-7.30108 -4.985608,-11.57603 -1.55e-4,-4.27388 1.770522,-8.385 4.985764,-11.57612 0.306432,-0.30417 0.459843,-0.70419 0.459843,-1.10437 0,-0.39613 -0.150455,-0.79256 -0.451598,-1.09612 -0.605317,-0.60984 -1.590427,-0.61357 -2.200335,-0.008 z"
         style="stroke-width:0.827287" />
      <path
         inkscape:connector-curvature="0"
         id="path20-2-9"
         d="m 80.606567,124.31131 c -2.005462,2.02421 -3.251182,4.9257 -3.251182,7.57242 0,3.1e-4 0,8.3e-4 0,8.3e-4 v 0.1121 c 0,4.7e-4 0,7e-4 0,8.3e-4 0,2.64679 1.245798,5.54853 3.251182,7.57266 0.604773,0.61037 1.589883,0.61496 2.200336,0.0102 0.307054,-0.30426 0.460853,-0.70474 0.460853,-1.10531 0,-0.39574 -0.150065,-0.79163 -0.450584,-1.09495 -1.427683,-1.44099 -2.350013,-3.55365 -2.350013,-5.38275 0,-2.4e-4 0,-5.4e-4 0,-7.8e-4 v -0.11257 c 0,-3.1e-4 0,-3.8e-4 0,-7e-4 0,-1.82887 0.922408,-3.94168 2.350013,-5.38251 0.604696,-0.61038 0.600339,-1.59565 -0.01027,-2.20034 -0.610375,-0.60485 -1.595562,-0.60026 -2.200336,0.0102 z"
         style="stroke-width:0.827287" />
    </g>
    <path
       sodipodi:nodetypes="ccssccsccc"
       inkscape:connector-curvature="0"
       id="path2619"
       d="m 102.84903,105.39678 c -0.0206,4.05925 0.58568,-3.63684 0,0 l -1.44979,-5.15853 c -0.79738,-2.837192 -1.96699,-7.425201 -2.599124,-10.195572 -2.141952,-9.387268 -1.404844,-16.77678 2.029794,-20.348633 3.64081,-3.786254 8.91656,-1.893323 10.90735,3.91353 0.60323,1.759554 0.7759,3.488041 0.74858,7.493371 -0.0332,4.86622 -0.19394,5.827804 -2.46143,14.722878 -1.33426,5.234146 -2.5184,9.610646 -2.63143,9.725566 -0.31808,-8.096883 2.2834,1.67386 -4.54395,-0.15261 z"
       style="fill:url(#radialGradient2637);fill-opacity:1;" />
    <path
       inkscape:connector-curvature="0"
       id="path3251"
       d="m 89.190551,71.97535 c -6.885275,-0.28205 -8.335784,8.55511 -5.210937,13.27149 3.618914,6.08074 9.024438,10.94524 13.662109,16.19922 4.481057,4.31587 3.012297,-2.85746 2.135517,-5.46692 -1.77582,-6.53573 -3.539054,-13.18935 -3.022236,-20.03308 -2.089667,-1.95282 -4.519855,-4.0487 -7.564453,-3.97071 z"
       style="fill:#46ff46;fill-opacity:1" />
    <path
       inkscape:connector-curvature="0"
       id="path3255"
       d="m 121.0636,72.00856 c -5.07414,-0.088 -9.262,4.35977 -7.87891,9.43945 -0.0417,6.57944 -3.48916,12.84929 -3.66992,19.23438 3.3188,3.93927 5.82996,-3.68754 8.48242,-5.4375 5.03475,-5.17827 12.86029,-13.31944 8.06836,-20.94532 -1.24904,-1.37253 -3.10612,-2.39279 -5.00195,-2.29101 z"
       style="fill:#46ff46;fill-opacity:1;" />
    <path
       sodipodi:nodetypes="cscccsssccscc"
       style="fill:url(#linearGradient3580);fill-opacity:1;"
       inkscape:connector-curvature="0"
       d="m 102.17503,112.07695 c -9.036649,1.36723 -15.98525,9.18648 -15.98525,18.59847 0,9.17616 7.669839,15.50779 12.744944,19.69763 1.738496,1.43538 4.366126,3.60447 4.452976,4.37945 v 0.003 8.59637 c 0,0.89064 0.72167,1.6123 1.6123,1.6123 0.89064,0 1.61231,-0.72166 1.61231,-1.6123 v -8.5925 c 0.0937,-0.78724 2.71662,-2.95245 4.45297,-4.3859 5.0751,-4.18984 12.74495,-10.52147 12.74495,-19.69763 0,-9.41199 -6.94861,-17.23124 -15.98525,-18.59804 0.0727,-0.29065 -5.7224,-0.29128 -5.64995,-8.5e-4 z"
       id="path815" />
    <path
       id="path3547"
       d="m 120.49232,94.47832 c 1.30166,-1.39776 2.53088,-2.71813 3.6466,-4.03635 3.84201,-4.54047 5.5115,-9.49175 4.58045,-13.58464 -0.58107,-2.55432 -2.12502,-4.50929 -4.3472,-5.50462 -3.34779,-1.49966 -6.99612,-0.75778 -10.15344,1.9539 -0.44005,-1.39389 -1.02112,-2.63881 -1.74129,-3.70336 -1.82061,-2.69061 -4.47619,-4.17243 -7.47744,-4.17243 -3.00125,0 -5.656825,1.48182 -7.477439,4.17222 -0.720593,1.06476 -1.301668,2.31054 -1.74172,3.70507 -3.157538,-2.70824 -6.814458,-3.45076 -10.153005,-1.95562 -2.222185,0.99555 -3.766129,2.95052 -4.347202,5.50463 -0.931053,4.09289 0.738434,9.04417 4.580448,13.58463 1.115502,1.31844 2.344936,2.63859 3.646604,4.03635 4.023024,4.32033 8.532532,9.16327 12.443124,16.71272 0.0772,0.30097 0.15177,0.5957 0.22422,0.88613 -9.036649,1.36723 -15.98525,9.18648 -15.98525,18.59847 0,9.17616 7.669839,15.50779 12.744944,19.69763 1.738496,1.43538 4.366126,3.60447 4.452976,4.37945 0,7.9e-4 0,0.002 0,0.003 v 8.59637 c 0,0.89064 0.72167,1.6123 1.6123,1.6123 0.89064,0 1.61231,-0.72166 1.61231,-1.6123 v -8.5925 c 0.0937,-0.78724 2.71662,-2.95245 4.45297,-4.3859 5.0751,-4.18984 12.74495,-10.52147 12.74495,-19.69763 0,-9.41199 -6.94861,-17.23124 -15.98525,-18.59804 0.0727,-0.29065 0.14725,-0.58559 0.22443,-0.88656 3.91059,-7.54945 8.4201,-12.39239 12.44291,-16.7125 z m 2.56141,-20.18305 c 1.29371,0.57936 2.16522,1.7127 2.52143,3.27707 0.69394,3.05005 -0.76337,7.0821 -3.89791,10.78653 -1.06605,1.25996 -2.27012,2.55303 -3.5447,3.92198 -2.21402,2.37762 -4.70213,5.0506 -7.18766,8.33325 2.19833,-7.91555 4.26638,-15.73974 4.26638,-20.19465 0,-1.17096 -0.0679,-2.29184 -0.19778,-3.35875 2.53153,-2.92257 5.43605,-3.93188 8.04024,-2.76543 z M 105,68.65543 c 4.24423,0 6.98666,4.61743 6.98666,11.76402 0,4.46952 -2.56335,13.65472 -4.82488,21.75838 -0.18531,0.66426 -0.36889,1.32166 -0.54947,1.97131 V 87.6817 c 0,-5.3e-4 0,-0.002 0,-0.002 v -6.2102 l 2.9675,-2.9675 c 0.62966,-0.62987 0.62966,-1.65057 0,-2.28023 -0.62988,-0.62944 -1.65057,-0.62944 -2.28023,0 l -0.68727,0.68727 v -2.98663 c 0,-0.89064 -0.72167,-1.61231 -1.61231,-1.61231 -0.89063,0 -1.6123,0.72167 -1.6123,1.61231 v 6.87809 c 0,6.4e-4 0,0.001 0,0.002 v 2.98534 l -0.68706,-0.68703 c -0.62988,-0.62944 -1.65057,-0.62944 -2.28023,0 -0.629658,0.62988 -0.629658,1.65057 0,2.28023 l 2.96729,2.9675 v 15.8008 c -0.1808,-0.65008 -0.36439,-1.3079 -0.54991,-1.9726 -2.26131,-8.10344 -4.824443,-17.28799 -4.824443,-21.7573 0,-7.14659 2.742423,-11.76402 6.986653,-11.76402 z M 88.32275,88.35887 c -3.134535,-3.70422 -4.59163,-7.73648 -3.897908,-10.78653 0.355997,-1.56437 1.227717,-2.69771 2.521429,-3.27707 2.597102,-1.16387 5.510858,-0.15564 8.040457,2.76435 -0.130058,1.06735 -0.19799,2.18844 -0.19799,3.35983 0,4.45512 2.068049,12.2791 4.266372,20.19487 -2.485528,-3.28287 -4.973638,-5.95585 -7.187655,-8.33325 -1.274794,-1.36917 -2.478649,-2.66202 -3.544705,-3.9222 z m 32.26287,42.31655 c 0,7.65651 -6.68892,13.17876 -11.57313,17.21103 -1.6194,1.33692 -3.01608,2.48983 -4.01249,3.5834 -0.9964,-1.09357 -2.39309,-2.24648 -4.01249,-3.5834 -4.884208,-4.03227 -11.573121,-9.55452 -11.573121,-17.21103 0,-8.59402 6.991596,-15.58562 15.585611,-15.58562 8.59402,0 15.58562,6.9916 15.58562,15.58562 z"
       inkscape:connector-curvature="0"
       style="stroke-width:1" />
    <g
       id="g8802"
       transform="translate(85.725036,-7.4083337)"
       clip-path="url(#clipPath8964)">
      <g
         transform="translate(4.3425445,3.1086631)"
         inkscape:tile-y0="80.024143"
         inkscape:tile-x0="23.253032"
         inkscape:tile-h="1.8520831"
         inkscape:tile-w="2.5003467"
         inkscape:tile-cy="80.950185"
         inkscape:tile-cx="24.503206"
         id="g8569"
         style="font-style:normal;font-weight:normal;font-size:2.64583px;line-height:1.25;font-family:sans-serif;letter-spacing:0px;word-spacing:0px;fill:#000000;fill-opacity:1;stroke:none;stroke-width:0.0661458">
        <text
           xml:space="preserve"
           x="23.151648"
           y="81.876228"
           id="text7388"
           inkscape:tile-cx="23.563496"
           inkscape:tile-cy="80.950185"
           inkscape:tile-w="0.62092722"
           inkscape:tile-h="1.8520831"
           inkscape:tile-x0="23.253032"
           inkscape:tile-y0="80.024143"><tspan
             sodipodi:role="line"
             id="tspan7386"
             x="23.151648"
             y="81.876228"
             style="font-style:normal;font-variant:normal;font-weight:bold;font-stretch:normal;font-size:2.64583px;font-family:Quicksand;-inkscape-font-specification:'Quicksand, Bold';font-variant-ligatures:normal;font-variant-caps:normal;font-variant-numeric:normal;font-feature-settings:normal;text-align:start;writing-mode:lr-tb;text-anchor:start;stroke-width:0.0661458">1</tspan></text>
        <text
           xml:space="preserve"
           x="24.30304"
           y="81.871208"
           id="text8412"
           inkscape:tile-cx="25.110759"
           inkscape:tile-cy="80.982206"
           inkscape:tile-w="1.28524"
           inkscape:tile-h="1.7779999"
           inkscape:tile-x0="24.468139"
           inkscape:tile-y0="80.093206"><tspan
             sodipodi:role="line"
             id="tspan8410"
             x="24.30304"
             y="81.871208"
             style="font-style:normal;font-variant:normal;font-weight:bold;font-stretch:normal;font-size:2.54px;font-family:Quicksand;-inkscape-font-specification:'Quicksand, Bold';font-variant-ligatures:normal;font-variant-caps:normal;font-variant-numeric:normal;font-feature-settings:normal;text-align:start;writing-mode:lr-tb;text-anchor:start;stroke-width:0.264583">0</tspan></text>
        <use
           x="0"
           y="0"
           inkscape:tiled-clone-of="#text8412"
           xlink:href="#text8412"
           id="use8514"
           width="100%"
           height="100%" />
      </g>
      <use
         transform="translate(3.7061375,14.254057)"
         height="100%"
         width="100%"
         id="use8721"
         xlink:href="#g8569"
         inkscape:tiled-clone-of="#g8569"
         y="0"
         x="0" />
      <use
         transform="translate(10.565313,2.5255988)"
         height="100%"
         width="100%"
         id="use8723"
         xlink:href="#g8569"
         inkscape:tiled-clone-of="#g8569"
         y="0"
         x="0" />
      <use
         transform="translate(4.6050121,10.671778)"
         height="100%"
         width="100%"
         id="use8725"
         xlink:href="#g8569"
         inkscape:tiled-clone-of="#g8569"
         y="0"
         x="0" />
      <use
         height="100%"
         width="100%"
         id="use8727"
         transform="translate(-2.1395076,9.0952071)"
         xlink:href="#g8569"
         inkscape:tiled-clone-of="#g8569"
         y="0"
         x="0" />
      <use
         transform="translate(7.8605849,-0.3061488)"
         height="100%"
         width="100%"
         id="use8729"
         xlink:href="#g8569"
         inkscape:tiled-clone-of="#g8569"
         y="0"
         x="0" />
      <use
         height="100%"
         width="100%"
         id="use8731"
         transform="translate(-2.1581234,11.91309)"
         xlink:href="#g8569"
         inkscape:tiled-clone-of="#g8569"
         y="0"
         x="0" />
      <use
         height="100%"
         width="100%"
         id="use8733"
         transform="translate(-2.4980092,3.2601958)"
         xlink:href="#g8569"
         inkscape:tiled-clone-of="#g8569"
         y="0"
         x="0" />
      <use
         height="100%"
         width="100%"
         id="use8735"
         transform="translate(-4.448156,-0.52054433)"
         xlink:href="#g8569"
         inkscape:tiled-clone-of="#g8569"
         y="0"
         x="0" />
      <use
         height="100%"
         width="100%"
         id="use8737"
         transform="translate(0.05503203,6.8761695)"
         xlink:href="#g8569"
         inkscape:tiled-clone-of="#g8569"
         y="0"
         x="0" />
      <use
         height="100%"
         width="100%"
         id="use8739"
         transform="translate(-0.31662918,13.865407)"
         xlink:href="#g8569"
         inkscape:tiled-clone-of="#g8569"
         y="0"
         x="0" />
      <use
         height="100%"
         width="100%"
         id="use8741"
         transform="translate(6.6172851,3.4839764)"
         xlink:href="#g8569"
         inkscape:tiled-clone-of="#g8569"
         y="0"
         x="0" />
      <use
         height="100%"
         width="100%"
         id="use8743"
         transform="translate(1.0300347,10.903046)"
         xlink:href="#g8569"
         inkscape:tiled-clone-of="#g8569"
         y="0"
         x="0" />
      <use
         height="100%"
         width="100%"
         id="use8745"
         transform="translate(3.1122136,17.788092)"
         xlink:href="#g8569"
         inkscape:tiled-clone-of="#g8569"
         y="0"
         x="0" />
      <use
         height="100%"
         width="100%"
         id="use8747"
         transform="translate(-4.584581,6.775039)"
         xlink:href="#g8569"
         inkscape:tiled-clone-of="#g8569"
         y="0"
         x="0" />
      <use
         height="100%"
         width="100%"
         id="use8749"
         transform="translate(4.9158262,7.1165192)"
         xlink:href="#g8569"
         inkscape:tiled-clone-of="#g8569"
         y="0"
         x="0" />
      <use
         height="100%"
         width="100%"
         id="use8751"
         transform="translate(-3.7180128,21.822868)"
         xlink:href="#g8569"
         inkscape:tiled-clone-of="#g8569"
         y="0"
         x="0" />
      <use
         height="100%"
         width="100%"
         id="use8753"
         transform="translate(4.1423622,0.92835037)"
         xlink:href="#g8569"
         inkscape:tiled-clone-of="#g8569"
         y="0"
         x="0" />
      <use
         height="100%"
         width="100%"
         id="use8755"
         transform="translate(8.5758562,9.6066668)"
         xlink:href="#g8569"
         inkscape:tiled-clone-of="#g8569"
         y="0"
         x="0" />
      <use
         height="100%"
         width="100%"
         id="use8757"
         transform="translate(2.1465592,3.8820966)"
         xlink:href="#g8569"
         inkscape:tiled-clone-of="#g8569"
         y="0"
         x="0" />
      <use
         height="100%"
         width="100%"
         id="use8759"
         transform="translate(7.0192414,12.877989)"
         xlink:href="#g8569"
         inkscape:tiled-clone-of="#g8569"
         y="0"
         x="0" />
      <use
         height="100%"
         width="100%"
         id="use8761"
         transform="translate(0.40531329,16.563897)"
         xlink:href="#g8569"
         inkscape:tiled-clone-of="#g8569"
         y="0"
         x="0" />
      <use
         height="100%"
         width="100%"
         id="use8763"
         transform="translate(6.4804461,17.197912)"
         xlink:href="#g8569"
         inkscape:tiled-clone-of="#g8569"
         y="0"
         x="0" />
      <use
         height="100%"
         width="100%"
         id="use8765"
         transform="translate(3.9990298,-2.2657145)"
         xlink:href="#g8569"
         inkscape:tiled-clone-of="#g8569"
         y="0"
         x="0" />
      <use
         height="100%"
         width="100%"
         id="use8767"
         transform="translate(-0.38401968,19.934083)"
         xlink:href="#g8569"
         inkscape:tiled-clone-of="#g8569"
         y="0"
         x="0" />
      <use
         height="100%"
         width="100%"
         id="use8769"
         transform="translate(9.0694115,6.0125136)"
         xlink:href="#g8569"
         inkscape:tiled-clone-of="#g8569"
         y="0"
         x="0" />
    </g>
    <g
       id="g1105"
       transform="matrix(0.23812551,0,0,0.23812551,232.24373,120.42449)"
       style="opacity:1">
      <g
         id="g6"
         transform="matrix(0.20942023,0,0,0.20942023,-586.00051,-10.580393)">
        <g
           id="g4">
          <path
             id="path2"
             d="M 105.907,204.449 83.463,182.005 c 2.805,-5.611 4.208,-11.923 4.208,-18.236 0,-23.145 -18.937,-42.082 -42.082,-42.082 -23.145,0 -42.082,18.938 -42.082,42.083 0,23.145 18.937,42.082 42.082,42.082 6.312,0 12.625,-1.403 17.534,-4.208 l 18.236,18.236 v 28.055 l -49.096,50.499 c -2.805,2.805 -4.208,6.312 -4.208,9.819 V 347.53 C 11.923,353.14 0,368.57 0,386.805 c 0,23.145 18.937,42.082 42.082,42.082 23.145,0 42.082,-18.937 42.082,-42.082 0,-18.236 -11.923,-33.666 -28.055,-39.978 v -32.964 l 49.797,-49.797 c 2.805,-2.805 4.208,-6.312 4.208,-9.819 v -39.978 c 10e-4,-3.507 -1.402,-7.014 -4.207,-9.82 z M 46.29,177.096 c -7.715,0 -14.027,-6.312 -14.027,-14.027 0,-7.715 6.312,-14.027 14.027,-14.027 7.715,0 14.027,6.312 14.027,14.027 10e-4,7.715 -6.312,14.027 -14.027,14.027 z m -4.208,223.737 c -7.715,0 -14.027,-6.312 -14.027,-14.027 0,-7.715 6.312,-14.027 14.027,-14.027 7.715,0 14.027,6.312 14.027,14.027 10e-4,7.715 -6.312,14.027 -14.027,14.027 z"
             inkscape:connector-curvature="0" />
        </g>
      </g>
      <g
         id="g12"
         transform="matrix(0.20942023,0,0,0.20942023,-586.00051,-10.580393)">
        <g
           id="g10">
          <path
             id="path8"
             d="m 173.238,0.351 c -23.145,0 -42.082,18.937 -42.082,42.082 0,18.236 11.923,33.666 28.055,39.277 v 232.855 l -35.77,35.77 c -2.805,2.805 -4.208,6.312 -4.208,9.819 v 63.123 c -16.132,5.611 -28.055,21.041 -28.055,39.277 0,23.145 18.937,42.082 42.082,42.082 23.145,0 42.082,-18.937 42.082,-42.082 0,-18.236 -11.923,-33.666 -28.055,-39.277 v -56.811 l 35.77,-35.77 c 2.805,-2.805 4.208,-6.312 4.208,-9.819 V 82.411 C 203.397,76.8 215.32,61.37 215.32,43.134 215.321,19.288 196.384,0.351 173.238,0.351 Z M 133.26,477.282 c -7.715,0 -14.027,-6.312 -14.027,-14.027 0,-7.715 6.312,-14.027 14.027,-14.027 7.715,0 14.027,6.312 14.027,14.027 0.001,7.715 -6.312,14.027 -14.027,14.027 z M 173.238,56.46 c -7.715,0 -14.027,-6.312 -14.027,-14.027 0,-7.715 6.312,-14.027 14.027,-14.027 7.715,0 14.027,6.312 14.027,14.027 0,7.715 -6.312,14.027 -14.027,14.027 z"
             inkscape:connector-curvature="0" />
        </g>
      </g>
      <g
         id="g18"
         transform="matrix(0.20942023,0,0,0.20942023,-586.00051,-10.580393)">
        <g
           id="g16">
          <path
             id="path14"
             d="M 261.611,422.575 V 273.184 c 16.132,-5.611 28.055,-21.743 28.055,-39.978 0,-23.145 -18.937,-42.082 -42.082,-42.082 -23.145,0 -42.082,18.937 -42.082,42.082 0,18.236 11.923,33.666 28.055,39.277 v 150.794 c -16.131,5.611 -28.055,21.041 -28.055,39.277 0,23.145 18.937,42.082 42.082,42.082 23.145,0 42.082,-18.937 42.082,-42.082 0,-18.236 -11.924,-33.666 -28.055,-39.979 z M 247.584,219.178 c 7.715,0 14.027,6.312 14.027,14.027 0,7.715 -6.312,14.027 -14.027,14.027 -7.715,0 -14.027,-6.312 -14.027,-14.027 -10e-4,-7.715 6.312,-14.027 14.027,-14.027 z m 0,258.104 c -7.715,0 -14.027,-6.312 -14.027,-14.027 0,-7.715 6.312,-14.027 14.027,-14.027 7.715,0 14.027,6.312 14.027,14.027 0,7.715 -6.312,14.027 -14.027,14.027 z"
             inkscape:connector-curvature="0" />
        </g>
      </g>
      <g
         id="g24"
         transform="matrix(0.20942023,0,0,0.20942023,-586.00051,-10.580393)">
        <g
           id="g22">
          <path
             id="path20"
             d="M 476.932,346.827 V 307.55 c 0,-3.507 -1.403,-7.014 -4.208,-9.819 l -49.797,-49.797 v -28.055 l 18.236,-18.236 c 5.611,2.805 11.222,4.208 17.534,4.208 23.145,0 42.082,-18.937 42.082,-42.082 0,-23.145 -18.937,-42.082 -42.082,-42.082 -23.145,0 -42.082,18.937 -42.082,42.082 0,6.312 1.403,12.625 4.208,18.236 l -22.444,22.444 c -2.104,2.805 -3.507,6.312 -3.507,9.819 v 39.978 c 0,3.507 1.403,7.014 4.208,9.819 l 49.797,49.797 v 32.964 c -16.131,5.611 -28.055,21.041 -28.055,39.277 0,23.145 18.937,42.082 42.082,42.082 23.145,0 42.082,-18.937 42.082,-42.082 0,-17.533 -11.923,-32.963 -28.054,-39.276 z M 458.696,149.041 c 7.715,0 14.027,6.312 14.027,14.027 0,7.715 -6.312,14.027 -14.027,14.027 -7.715,0 -14.027,-6.312 -14.027,-14.027 0,-7.715 6.312,-14.027 14.027,-14.027 z m 4.208,251.792 c -7.715,0 -14.027,-6.312 -14.027,-14.027 0,-7.715 6.312,-14.027 14.027,-14.027 7.715,0 14.027,6.312 14.027,14.027 0.001,7.715 -6.312,14.027 -14.027,14.027 z"
             inkscape:connector-curvature="0" />
        </g>
      </g>
      <g
         id="g30"
         transform="matrix(0.20942023,0,0,0.20942023,-586.00051,-10.580393)">
        <g
           id="g28">
          <path
             id="path26"
             d="m 385.753,423.978 v -63.123 c 0,-3.507 -1.403,-7.014 -4.208,-9.819 l -35.77,-35.77 V 81.71 c 16.131,-5.611 28.055,-21.041 28.055,-39.277 0,-23.145 -18.937,-42.082 -42.082,-42.082 -23.145,0 -42.082,18.937 -42.082,42.082 0,18.236 11.923,33.666 28.055,39.277 v 238.466 c 0,3.507 1.403,7.014 4.208,9.819 l 35.77,35.77 v 56.811 c -16.132,5.611 -28.055,21.041 -28.055,39.277 0,23.145 18.937,42.082 42.082,42.082 23.145,0 42.082,-18.937 42.082,-42.082 0,-16.834 -11.923,-32.264 -28.055,-37.875 z M 331.748,56.46 c -7.715,0 -14.027,-6.312 -14.027,-14.027 0,-7.715 6.312,-14.027 14.027,-14.027 7.715,0 14.027,6.312 14.027,14.027 0,7.715 -6.312,14.027 -14.027,14.027 z m 39.978,420.822 c -7.715,0 -14.027,-6.312 -14.027,-14.027 0,-7.715 6.312,-14.027 14.027,-14.027 7.715,0 14.027,6.312 14.027,14.027 0,7.715 -6.312,14.027 -14.027,14.027 z"
             inkscape:connector-curvature="0" />
        </g>
      </g>
    </g>
  </g>
</svg>
